87 81 111
57 32 113
85 1 116
65 8 113
88 25 116
52 83 116
16 43 112
57 84 116
47 45 105
3 15 20
70 33 113
86 22 116
74 90 111
32 47 110
69 14 113
37 58 113
86 73 116
71 86 116
34 32 27
76 97 119
92 15 116
58 84 116
65 11 113
8 46 112
51 16 112
8 65 113
23 3 21
88 75 111
26 45 112
35 39 35
10 54 113
57 86 116
44 98 119
7 35 112
99 98 26
9 40 112
73 70 116
34 5 112
71 69 103
44 10 112
10 31 112
87 12 116
81 86 111
60 79 116
96 6 116
69 5 113
49 14 112
35 74 116
27 22 112
81 91 111
476405 975818 525
329641 554693 470
24575 462482 449
135057 629489 509
603614 39013 470
549075 245925 470
437093 676678 509
923267 201576 525
437996 119605 449
125195 277046 443
698491 278142 509
173110 717070 509
471416 725449 509
265775 489573 449
233037 740862 509
336007 545222 470
557255 982714 525
456323 19277 449
936091 284046 525
42061 971190 525
390909 743593 509
826026 359808 509
492320 569156 470
161305 170349 352
907207 906935 326
291976 578361 470
987260 11019 525
992078 398474 525
816329 604533 509
732616 736958 424
694411 198525 509
719929 172158 509
399023 257952 441
351500 440384 449
755144 262563 509
508645 812560 509
156402 669604 509
11196 731641 509
161707 372942 443
715093 20176 509
723901 869104 525
982673 394101 525
84537 643794 509
741131 505668 509
749913 113668 509
609044 474474 470
241050 959163 525
869731 20955 525
879596 745633 525
32691 944177 525
765321 147786 509
324844 924063 525
137878 78808 354
80008 583484 470
135173 192943 383
208402 549242 470
78030 92978 338
68064 638210 509
166973 137810 383
947856 227191 525
898668 274296 525
448314 747805 509
458428 142662 449
710569 106548 509
843604 739358 525
147764 570127 470
302297 449351 449
947514 252021 525
932539 958043 507
162287 59476 383
114295 695350 509
972124 499701 525
546056 293327 470
620501 778094 509
891661 613919 525
707021 161314 509
227292 523097 470
982751 989050 427
187066 813490 509
502254 123027 449
281997 730948 509
824068 423650 509
155520 268133 443
387145 816418 509
607170 656877 509
335477 220634 443
712007 647673 504
179796 609668 470
824006 858473 525
431671 369057 449
789061 640593 504
812977 729170 468
424575 835172 509
687215 135277 509
191378 385266 443
350857 55553 443
822109 427945 509
341794 553351 470
765475 238706 509
954544 650095 525
