681 261 145
923 998 174
46 712 171
322 738 171
590 422 142
772 766 122
720 806 153
161 729 171
773 153 171
824 76 171
368 568 142
206 295 128
65 555 144
991 443 179
240 74 128
154 996 179
894 803 179
283 434 144
338 364 126
202 56 125
494 354 142
179 735 171
995 952 143
11 714 171
576 630 132
825 131 171
607 558 119
752 894 179
801 971 179
244 325 131
239 66 128
526 744 171
202 950 179
109 472 144
804 346 171
654 830 171
824 464 171
302 266 118
871 808 179
105 545 144
457 33 144
654 708 171
980 923 174
107 985 179
136 338 144
994 286 179
568 351 142
508 439 142
383 897 179
120 149 122
444 636 142
977 182 179
708 938 179
194 355 144
771 533 171
857 911 179
685 4 145
281 73 128
556 840 171
82 520 144
377 978 179
132 942 179
441 551 142
250 504 144
582 948 179
673 228 145
429 293 144
910 616 179
57 448 144
311 596 144
459 278 144
383 345 126
875 488 179
68 734 171
110 55 119
347 536 142
51 908 179
360 969 179
812 64 171
819 147 171
298 210 128
671 149 145
254 115 128
866 455 171
471 655 145
839 650 171
188 522 144
347 23 144
651 664 145
559 720 171
349 836 171
93 874 179
850 144 171
21 964 179
978 216 179
153 333 144
543 223 144
319 55 131
688 265 145
805 958 179
880 105 179
587 793 171
103 687 145
593 489 142
728 707 127
713 988 179
192 611 144
844 484 171
155 364 144
354 2 144
379 265 144
567 535 137
273 514 144
648 196 144
192 740 171
98 766 171
709 213 171
357 65 144
267 586 144
260 770 171
394 831 171
346 366 126
456 122 144
618 848 171
820 558 171
519 436 142
635 679 145
319 633 144
72 771 171
428 658 145
474 347 134
498 749 171
421 58 144
387 253 144
141 561 144
384 823 171
770 726 153
556 445 142
187 432 144
309 367 144
285 351 144
280 776 171
292 982 179
409 851 171
618 751 171
325 598 144
192 476 144
145 754 171
841 134 171
250 958 179
197 566 144
550 140 144
296 923 179
239 681 145
564 553 137
470 406 134
945 262 179
107 345 144
126 598 144
242 424 144
199 768 171
140 565 144
500 731 171
124 887 179
146 842 171
804 23 171
709 518 171
211 841 171
138 489 144
667 134 145
771 245 171
101 744 171
937 870 179
876 304 179
979 921 174
48 661 145
192 92 125
677 497 145
13 549 144
88 885 179
175 166 125
173 952 179
326 975 179
102 114 114
65 590 144
714 586 171
481 794 171
858 779 135
41 583 144
765 919 179
318 699 145
184 303 128
377 266 144
419 182 144
579 190 144
855 891 179
617 356 142
878 156 179
675 357 145
44 119 119
